Spotify Data Analysis
…
## 29 7FvMAbdiffitFmbuJN3Vsk         turkish pop
## 30 3cNwyF5SboOs9icz2XyotE    deep turkish pop
## 31 3cNwyF5SboOs9icz2XyotE         turkish pop
## 32 4uGB0nZ5d1iCXS3sHR3pzm         turkish pop
## 33 0ZRQKFaYGEtbLc8NbyICoe         groove room
## 34 0ZRQKFaYGEtbLc8NbyICoe         turkish pop
## 35 1U449OOb70EZlElNjLMwCM             arabesk
## 36 1U449OOb70EZlElNjLMwCM    deep turkish pop
## 37 1U449OOb70EZlElNjLMwCM         turkish pop
## 38 7CW2eGwAuElNq09rVtZYsM turkish modern jazz
## 39 7CW2eGwAuElNq09rVtZYsM         turkish pop
## 40 7CW2eGwAuElNq09rVtZYsM        turkish rock
## 
## $top_tracks
## # A tibble: 200 x 18
##    artist_id track_id track_name track_popularity album_id album_name
##    <chr>     <chr>    <chr>                 <int> <chr>    <chr>     
##  1 2yMN0IP2~ 6vEL7E8~ Simarik                  63 6ebdbUX~ lrm Sa~
##  2 2yMN0IP2~ 1BfpV5h~ Kedi Gibi                57 4fJzakA~ 10        
##  3 2yMN0IP2~ 1tiIKel~ K Gnei               57 06EBiLh~ Aacayipsin
##  4 2yMN0IP2~ 0oVnsgy~ Ay                       57 11KfFiH~ Karma     
##  5 2yMN0IP2~ 3ajYmPD~ Kuzu Kuzu                56 11KfFiH~ Karma     
##  6 2yMN0IP2~ 6nAgxB5~ lrm Sa~               55 6ebdbUX~ lrm Sa~
##  7 2yMN0IP2~ 4PGsEvm~ Salina Sa~               52 6ebdbUX~ lrm Sa~
##  8 2yMN0IP2~ 18B5WaP~ Yalnzlar~               52 0cHmPmx~ Ve Nazan ~
##  9 2yMN0IP2~ 2PcgacR~ ok Alad~               51 4fJzakA~ 10        
## 10 2yMN0IP2~ 0ZJKPGK~ Sen Baka~               51 11KfFiH~ Karma     
## # ... with 190 more rows, and 12 more variables: duration_ms <int>,
## #   danceability <dbl>, energy <dbl>, key <int>, loudness <dbl>,
## #   mode <int>, speechiness <dbl>, acousticness <dbl>,
## #   instrumentalness <dbl>, liveness <dbl>, valence <dbl>, tempo <dbl>
…
